4.168328768566338383e-01 2.878220467899694768e-02 -1.106209481393719135e-01 7.019307678362121661e-02 8.108507241440519875e-02 -4.807267336165071264e-02 -1.200982387712351274e-01 -1.854913519401688304e-01 -4.167485390829195890e-01 -4.317229588766221537e-01
5.381426234807171749e-01 1.527862413502787398e-01 -6.705682042696003986e-02 -2.277129647715089855e-01 -2.310782783576573185e-01 -2.446511522136191608e-01 -7.117667948461026128e-02 -2.384844953888999239e-02 -2.293440387578239703e-01 -1.921209625598526705e-01
3.283235623295081007e-01 1.180542164664463850e-01 -4.305209113188710607e-02 -3.171584135894790490e-01 -3.208116003004082839e-01 -4.905209036355596131e-01 -2.447977921159809611e-01 1.000604587109749366e-01 2.736506768933070211e-01 1.925037727461569870e-01
4.619086723384414062e-01 2.114565824346426037e-02 -2.346591140522235608e-01 -3.870837345127812190e-01 -4.140432012192402089e-01 -3.395869293062423466e-01 -2.746571173393254073e-01 3.551896928098596806e-02 3.368664874140593901e-01 5.891806183057231028e-01
5.904363335260944812e-01 1.673540326085219687e-02 -1.323633239787750937e-01 -1.018697718747379327e-01 -1.008392752668334086e-01 -1.015744340138532709e-01 -1.677362521954643138e-01 -2.280649194322224571e-01 -1.974410018133586076e-01 -1.545655164234034928e-01
5.939475163638658906e-01 4.485649687818914211e-02 -3.584968032590697407e-01 -3.292648723316143888e-01 3.155703739025340210e-02 2.051022249470725589e-01 1.711416996158841575e-01 -1.495161580864690642e-01 -4.572011756614052236e-01 -5.042519317134133150e-01
6.442410199974250018e-01 4.549934916910996496e-01 7.618112595363819850e-02 -8.932899250315322337e-02 -3.752808018745100727e-01 -4.049023683662765771e-01 -4.048349301384968624e-01 -2.484634217980918880e-01 -1.182292462504327402e-01 -6.875175342240330556e-02
2.856810868877150411e-01 -2.755379766223437984e-02 -2.487744253142872564e-01 -2.807066380225258784e-01 -1.776462944001248878e-01 -6.535242459586006192e-02 -2.435421757427185252e-01 5.150743152412955161e-02 6.782142081656963861e-02 2.771316330186736621e-01
3.563559651668991579e-01 -1.381135086833983616e-01 -3.360711112697604697e-01 -1.432671913578677236e-01 2.867217295934141874e-01 1.580289604409815252e-01 -3.545738545571214262e-02 -2.686814270210783340e-01 -2.722333753125649181e-01 -2.145653122018260639e-01
4.168328768566338383e-01 2.878220467899694768e-02 -1.106209481393719135e-01 7.019307678362121661e-02 8.108507241440519875e-02 -4.807267336165071264e-02 -1.200982387712351274e-01 -1.854913519401688304e-01 -4.167485390829195890e-01 -4.317229588766221537e-01
